source,target,title,summary,author
https://fedi.nullob.si/notes/90virlue1r,https://www.alm.website/,🎵 (@forever) | null,cool indieweb sites i like,🎵
https://chaos.social/@a_breakin_glass/108539617375974557,https://www.alm.website/blog/2022-06-25-note-1,"chaotic avocado goblin: ""@alexandra@mk.nixnet.social hmm"" - chaos.social",@alexandra hmm,chaotic avocado goblin
https://toot.site/@Amber/108562585671285370,https://www.alm.website/blog/2022-06-28-note-1,"Amber Lovelace: ""@alexandra@mk.nixnet.social Re: https://www.alm.w…"" - Tootsite",yup yup yup yup,Amber Lovelace
https://chaos.social/@a_breakin_glass/108562784331238756,https://www.alm.website/blog/2022-06-29-note-1,"chaotic avocado goblin: ""@alexandra@mk.nixnet.social remember when there w…"" - chaos.social",remember when there was some notion of providing native webmention support in masto?,chaotic avocado goblin
https://chaos.social/@a_breakin_glass/108602702184637766,https://www.alm.website/blog/2022-07-06-note-1,"chaotic avocado goblin: ""@alexandra@mk.nixnet.social ""a utopian autocratic…"" - chaos.social","""a utopian autocratic company town""",chaotic avocado goblin
https://lesbian.solutions/@amber/108602726839796945,https://www.alm.website/blog/2022-07-06-note-1,"Amber: ""@alexandra@mk.nixnet.social 
Re https://www.alm.w…"" - lesbian.solutions",Love the idea of Disneyland having a riot,Amber
https://lesbian.solutions/@amber/108614820502951162,https://www.alm.website/blog/2022-07-08-crime-against-database-design,"Amber: ""@alexandra@mk.nixnet.social what caused this :blo…"" - lesbian.solutions",what caused this,Amber
https://lesbian.solutions/@amber/108659938542132723,https://www.alm.website/blog/2022-07-16-note-1,"Amber: ""@alexandra@mk.nixnet.social we need more recursio…"" - lesbian.solutions",we need more recursion!,Amber
