date,title,path
2021-05-18,XSLT,2021/05/18/xslt
2021-04-25,Version 3.1 and XSite,2021/04/25/v3.1-xsite
2019-02-11,alm 3.0 with custom CSS,2019/02/11/v3.0-custom-css
2018-09-08,Available on GitLab,2018/09/08/available-on-gitlab
2018-06-09,Azure hosting,2018/06/09/azure-hosting
2018-01-24,Programmingwave.com 2.2 has launched,2018/01/24/v2.2-launch
2018-01-21,Now working on version 2.2,2018/01/21/v2.2-working
2017-06-12,Version 2.1 &amp; Jekyll,2017/06/12/v2.1-jekyll
2017-04-23,Programmingwave.com 2.0 has launched,2017/04/23/v2.0-launch
2017-04-20,More confusion about version 2.0,2017/04/20/v2.0-confusion
